<?xml version="1.0" encoding="utf-8" standalone="no"?>
<!DOCTYPE svg PUBLIC "-//W3C//DTD SVG 1.1//EN"
  "http://www.w3.org/Graphics/SVG/1.1/DTD/svg11.dtd">
<!-- Created with matplotlib (https://matplotlib.org/) -->
<svg height="288pt" version="1.1" viewBox="0 0 720 288" width="720pt" xmlns="http://www.w3.org/2000/svg" xmlns:xlink="http://www.w3.org/1999/xlink">
 <metadata>
  <rdf:RDF xmlns:cc="http://creativecommons.org/ns#" xmlns:dc="http://purl.org/dc/elements/1.1/" xmlns:rdf="http://www.w3.org/1999/02/22-rdf-syntax-ns#">
   <cc:Work>
    <dc:type rdf:resource="http://purl.org/dc/dcmitype/StillImage"/>
    <dc:date>2021-09-23T00:18:30.755065</dc:date>
    <dc:format>image/svg+xml</dc:format>
    <dc:creator>
     <cc:Agent>
      <dc:title>Matplotlib v3.3.4, https://matplotlib.org/</dc:title>
     </cc:Agent>
    </dc:creator>
   </cc:Work>
  </rdf:RDF>
 </metadata>
 <defs>
  <style type="text/css">*{stroke-linecap:butt;stroke-linejoin:round;}</style>
 </defs>
 <g id="figure_1">
  <g id="patch_1">
   <path d="M 0 288 
L 720 288 
L 720 0 
L 0 0 
z
" style="fill:#ffffff;"/>
  </g>
  <g id="axes_1">
   <g id="patch_2">
    <path d="M 10.8 277.2 
L 709.2 277.2 
L 709.2 10.8 
L 10.8 10.8 
z
" style="fill:#ffffff;"/>
   </g>
   <g id="matplotlib.axis_1">
    <g id="xtick_1">
     <g id="line2d_1">
      <path clip-path="url(#p43818d45a1)" d="M 10.8 277.2 
L 10.8 10.8 
" style="fill:none;stroke:#d3d3d3;stroke-linecap:square;stroke-opacity:0.75;stroke-width:0.8;"/>
     </g>
     <g id="line2d_2"/>
    </g>
    <g id="xtick_2">
     <g id="line2d_3">
      <path clip-path="url(#p43818d45a1)" d="M 127.2 277.2 
L 127.2 10.8 
" style="fill:none;stroke:#d3d3d3;stroke-linecap:square;stroke-opacity:0.75;stroke-width:0.8;"/>
     </g>
     <g id="line2d_4"/>
    </g>
    <g id="xtick_3">
     <g id="line2d_5">
      <path clip-path="url(#p43818d45a1)" d="M 243.6 277.2 
L 243.6 10.8 
" style="fill:none;stroke:#d3d3d3;stroke-linecap:square;stroke-opacity:0.75;stroke-width:0.8;"/>
     </g>
     <g id="line2d_6"/>
    </g>
    <g id="xtick_4">
     <g id="line2d_7">
      <path clip-path="url(#p43818d45a1)" d="M 360 277.2 
L 360 10.8 
" style="fill:none;stroke:#d3d3d3;stroke-linecap:square;stroke-opacity:0.75;stroke-width:0.8;"/>
     </g>
     <g id="line2d_8"/>
    </g>
    <g id="xtick_5">
     <g id="line2d_9">
      <path clip-path="url(#p43818d45a1)" d="M 476.4 277.2 
L 476.4 10.8 
" style="fill:none;stroke:#d3d3d3;stroke-linecap:square;stroke-opacity:0.75;stroke-width:0.8;"/>
     </g>
     <g id="line2d_10"/>
    </g>
    <g id="xtick_6">
     <g id="line2d_11">
      <path clip-path="url(#p43818d45a1)" d="M 592.8 277.2 
L 592.8 10.8 
" style="fill:none;stroke:#d3d3d3;stroke-linecap:square;stroke-opacity:0.75;stroke-width:0.8;"/>
     </g>
     <g id="line2d_12"/>
    </g>
    <g id="xtick_7">
     <g id="line2d_13">
      <path clip-path="url(#p43818d45a1)" d="M 709.2 277.2 
L 709.2 10.8 
" style="fill:none;stroke:#d3d3d3;stroke-linecap:square;stroke-opacity:0.75;stroke-width:0.8;"/>
     </g>
     <g id="line2d_14"/>
    </g>
   </g>
   <g id="matplotlib.axis_2">
    <g id="ytick_1">
     <g id="line2d_15">
      <path clip-path="url(#p43818d45a1)" d="M 10.8 277.2 
L 709.2 277.2 
" style="fill:none;stroke:#d3d3d3;stroke-linecap:square;stroke-opacity:0.75;stroke-width:0.8;"/>
     </g>
     <g id="line2d_16"/>
    </g>
    <g id="ytick_2">
     <g id="line2d_17">
      <path clip-path="url(#p43818d45a1)" d="M 10.8 223.92 
L 709.2 223.92 
" style="fill:none;stroke:#d3d3d3;stroke-linecap:square;stroke-opacity:0.75;stroke-width:0.8;"/>
     </g>
     <g id="line2d_18"/>
    </g>
    <g id="ytick_3">
     <g id="line2d_19">
      <path clip-path="url(#p43818d45a1)" d="M 10.8 170.64 
L 709.2 170.64 
" style="fill:none;stroke:#d3d3d3;stroke-linecap:square;stroke-opacity:0.75;stroke-width:0.8;"/>
     </g>
     <g id="line2d_20"/>
    </g>
    <g id="ytick_4">
     <g id="line2d_21">
      <path clip-path="url(#p43818d45a1)" d="M 10.8 117.36 
L 709.2 117.36 
" style="fill:none;stroke:#d3d3d3;stroke-linecap:square;stroke-opacity:0.75;stroke-width:0.8;"/>
     </g>
     <g id="line2d_22"/>
    </g>
    <g id="ytick_5">
     <g id="line2d_23">
      <path clip-path="url(#p43818d45a1)" d="M 10.8 64.08 
L 709.2 64.08 
" style="fill:none;stroke:#d3d3d3;stroke-linecap:square;stroke-opacity:0.75;stroke-width:0.8;"/>
     </g>
     <g id="line2d_24"/>
    </g>
    <g id="ytick_6">
     <g id="line2d_25">
      <path clip-path="url(#p43818d45a1)" d="M 10.8 10.8 
L 709.2 10.8 
" style="fill:none;stroke:#d3d3d3;stroke-linecap:square;stroke-opacity:0.75;stroke-width:0.8;"/>
     </g>
     <g id="line2d_26"/>
    </g>
   </g>
   <g id="line2d_27">
    <path clip-path="url(#p43818d45a1)" d="M 10.81164 276.6672 
L 11.977949 271.84017 
L 13.144259 269.638804 
L 14.310568 267.947131 
L 16.643187 265.262521 
L 18.975805 263.079405 
L 21.308424 261.191283 
L 24.807352 258.717286 
L 28.30628 256.537415 
L 32.971517 253.946655 
L 37.636755 251.616926 
L 43.468301 248.973892 
L 50.466158 246.097321 
L 57.464014 243.465151 
L 65.628179 240.632974 
L 74.958654 237.643729 
L 85.455438 234.530412 
L 97.118531 231.318274 
L 109.947934 228.026677 
L 123.943646 224.670555 
L 139.105667 221.261522 
L 156.600307 217.569707 
L 175.261257 213.868536 
L 195.088516 210.159559 
L 217.248393 206.243289 
L 241.740889 202.152169 
L 267.399695 198.09284 
L 295.391119 193.889758 
L 325.715161 189.563604 
L 358.371823 185.131725 
L 393.361103 180.608673 
L 430.683002 176.006673 
L 471.503829 171.201764 
L 514.657274 166.348521 
L 561.309648 161.330217 
L 592.8 158.062298 
L 592.8 158.062298 
" style="fill:none;stroke:#003299;stroke-linecap:square;stroke-width:2;"/>
   </g>
   <g id="line2d_28">
    <path clip-path="url(#p43818d45a1)" d="M 10.81164 270.125925 
L 13.144259 266.905056 
L 16.643187 262.542095 
L 20.142115 258.597942 
L 23.641043 254.971087 
L 28.30628 250.517649 
L 32.971517 246.408514 
L 37.636755 242.574365 
L 43.468301 238.095372 
L 49.299848 233.902641 
L 56.297704 229.181525 
L 63.29556 224.741697 
L 71.459726 219.858032 
L 79.623891 215.243159 
L 88.954366 210.247238 
L 98.28484 205.504808 
L 108.781624 200.429214 
L 119.278408 195.591346 
L 130.941502 190.457782 
L 143.770905 185.066859 
L 156.600307 179.910218 
L 170.596019 174.519088 
L 185.758041 168.921575 
L 202.086372 163.14231 
L 219.581012 157.20278 
L 237.075652 151.494641 
L 255.736601 145.6328 
L 275.56386 139.633716 
L 296.557428 133.511891 
L 318.717305 127.280091 
L 342.043492 120.949558 
L 366.535988 114.530196 
L 392.194794 108.030742 
L 419.019909 101.458913 
L 448.177642 94.549544 
L 478.501685 87.597865 
L 509.992037 80.607828 
L 542.648698 73.582927 
L 577.637979 66.286662 
L 592.8 63.193638 
L 592.8 63.193638 
" style="fill:none;stroke:#003299;stroke-dasharray:7.4,3.2;stroke-dashoffset:0;stroke-width:2;"/>
   </g>
   <g id="line2d_29">
    <path clip-path="url(#p43818d45a1)" d="M 10.81164 189.285443 
L 592.8 61.416 
L 592.8 61.416 
" style="fill:none;stroke:#808080;stroke-dasharray:2,3.3;stroke-dashoffset:0;stroke-width:2;"/>
   </g>
   <g id="line2d_30">
    <path clip-path="url(#p43818d45a1)" d="M 10.81164 209.533334 
L 592.8 156.2544 
L 592.8 156.2544 
" style="fill:none;stroke:#808080;stroke-dasharray:2,3.3;stroke-dashoffset:0;stroke-width:2;"/>
   </g>
   <g id="patch_3">
    <path d="M 10.8 277.2 
L 10.8 10.8 
" style="fill:none;stroke:#d3d3d3;stroke-linecap:square;stroke-linejoin:miter;stroke-width:0.8;"/>
   </g>
   <g id="patch_4">
    <path d="M 709.2 277.2 
L 709.2 10.8 
" style="fill:none;stroke:#d3d3d3;stroke-linecap:square;stroke-linejoin:miter;stroke-width:0.8;"/>
   </g>
   <g id="patch_5">
    <path d="M 10.8 277.2 
L 709.2 277.2 
" style="fill:none;stroke:#d3d3d3;stroke-linecap:square;stroke-linejoin:miter;stroke-width:0.8;"/>
   </g>
   <g id="patch_6">
    <path d="M 10.8 10.8 
L 709.2 10.8 
" style="fill:none;stroke:#d3d3d3;stroke-linecap:square;stroke-linejoin:miter;stroke-width:0.8;"/>
   </g>
   <g id="text_1">
    <!-- $y$ -->
    <g style="fill:#003299;" transform="translate(604.44 165.312)scale(0.5 -0.5)">
     <defs>
      <path d="M 26.296875 -10.515625 
C 23.59375 -14.390625 19.703125 -18 14.796875 -18 
C 13.59375 -18 8.796875 -17.796875 7.296875 -12.90625 
C 7.59375 -13.015625 8.09375 -13.015625 8.296875 -13.015625 
C 11.296875 -13.015625 13.296875 -10.40625 13.296875 -8.109375 
C 13.296875 -5.8125 11.40625 -5 9.90625 -5 
C 8.296875 -5 4.796875 -6.203125 4.796875 -11.109375 
C 4.796875 -16.40625 9.09375 -20 14.796875 -20 
C 24.796875 -20 34.90625 -10.515625 37.703125 -0.109375 
L 47.5 38.796875 
C 47.59375 39.296875 47.796875 39.890625 47.796875 40.484375 
C 47.796875 41.984375 46.59375 43 45.09375 43 
C 44.203125 43 42.09375 42.59375 41.296875 39.59375 
L 33.90625 10.265625 
C 33.40625 8.46875 33.40625 8.28125 32.59375 7.171875 
C 30.59375 4.390625 27.296875 1 22.5 1 
C 16.90625 1 16.40625 6.484375 16.40625 9.171875 
C 16.40625 14.859375 19.09375 22.546875 21.796875 29.71875 
C 22.90625 32.609375 23.5 34.015625 23.5 36.015625 
C 23.5 40.203125 20.5 44 15.59375 44 
C 6.40625 44 2.703125 29.53125 2.703125 28.71875 
C 2.703125 28.328125 3.09375 27.828125 3.796875 27.828125 
C 4.703125 27.828125 4.796875 28.234375 5.203125 29.625 
C 7.59375 38 11.40625 41.984375 15.296875 41.984375 
C 16.203125 41.984375 17.90625 41.984375 17.90625 38.703125 
C 17.90625 36.109375 16.796875 33.21875 15.296875 29.421875 
C 10.40625 16.359375 10.40625 13.0625 10.40625 10.671875 
C 10.40625 1.1875 17.203125 -1 22.203125 -1 
C 25.09375 -1 28.703125 -0.109375 32.203125 3.59375 
L 32.296875 3.484375 
C 30.796875 -2.203125 29.796875 -5.609375 26.296875 -10.515625 
z
" id="CMMI12-121"/>
     </defs>
     <use transform="scale(0.996264)" xlink:href="#CMMI12-121"/>
    </g>
   </g>
   <g id="text_2">
    <!-- $y^*$ -->
    <g style="fill:#c00000;" transform="translate(604.44 64.08)scale(0.5 -0.5)">
     <defs>
      <path d="M 27.5 43.15625 
C 27.59375 44.578125 27.59375 47 25 47 
C 23.40625 47 22.09375 45.6875 22.40625 44.375 
L 22.40625 43.046875 
L 23.796875 27.1875 
L 11 36.703125 
C 10.09375 37.21875 9.90625 37.421875 9.203125 37.421875 
C 7.796875 37.421875 6.5 35.984375 6.5 34.5625 
C 6.5 32.921875 7.5 32.515625 8.5 32 
L 22.703125 25.046875 
L 8.90625 18.1875 
C 7.296875 17.375 6.5 16.953125 6.5 15.421875 
C 6.5 13.890625 7.796875 12.5625 9.203125 12.5625 
C 9.90625 12.5625 10.09375 12.5625 12.59375 14.5 
L 23.796875 22.796875 
L 22.296875 5.609375 
C 22.296875 3.5 24.09375 3 24.90625 3 
C 26.09375 3 27.59375 3.6875 27.59375 5.609375 
L 26.09375 22.796875 
L 38.90625 13.28125 
C 39.796875 12.765625 40 12.5625 40.703125 12.5625 
C 42.09375 12.5625 43.40625 14 43.40625 15.421875 
C 43.40625 16.953125 42.5 17.46875 41.296875 18.078125 
C 35.296875 21.15625 35.09375 21.15625 27.203125 24.9375 
L 41 31.796875 
C 42.59375 32.609375 43.40625 33.015625 43.40625 34.5625 
C 43.40625 36.09375 42.09375 37.421875 40.703125 37.421875 
C 40 37.421875 39.796875 37.421875 37.296875 35.484375 
L 26.09375 27.1875 
z
" id="CMSY10-3"/>
     </defs>
     <use transform="scale(0.996264)" xlink:href="#CMMI12-121"/>
     <use transform="translate(51.138781 36.153639)scale(0.697382)" xlink:href="#CMSY10-3"/>
    </g>
   </g>
   <g id="patch_7">
    <path clip-path="url(#p43818d45a1)" d="M 569.515354 149.17651 
Q 607.438906 110.898385 567.230862 84.990864 
L 562.897763 91.715762 
Q 562.053024 85.209387 559.657645 78.309415 
Q 566.640248 76.297079 573.73051 74.903517 
L 569.397411 81.628415 
Q 613.753161 110.208455 572.356911 151.991746 
L 569.515354 149.17651 
z
" style="fill:#c00000;stroke:#c00000;stroke-linecap:round;"/>
   </g>
  </g>
 </g>
 <defs>
  <clipPath id="p43818d45a1">
   <rect height="266.4" width="698.4" x="10.8" y="10.8"/>
  </clipPath>
 </defs>
</svg>
